…
    ## # A tibble: 1 x 1
    ##   median_staff_num
    ##              <dbl>
    ## 1             54.5

We can also rank states by the number of school shootings that have
occurred there:

    ## # A tibble: 41 x 2
    ## # Groups:   state [41]
    ##    state              n
    ##    <chr>          <int>
    ##  1 California        28
    ##  2 Florida           17
    ##  3 Texas             14
    ##  4 Illinois          11
    ##  5 North Carolina    11
    ##  6 Pennsylvania      11
    ##  7 Louisiana         10
    ##  8 Ohio              10
    ##  9 Georgia            9
    ## 10 Michigan           8
    ## # … with 31 more rows
…
